…
We do still see a good amount of outliers in Condos and Single-Family as
well.

``` r
library(dplyr)

outlier <- ames %>%
  filter(`Sale Price` == max(`Sale Price`, na.rm = TRUE)) %>%
  select(`Parcel ID`, Address, Occupancy, `Sale Price`)

outlier
```

    ## # A tibble: 188 × 4
    ##    `Parcel ID` Address                            Occupancy   `Sale Price`
    ##    <chr>       <chr>                              <fct>              <dbl>
    ##  1 0914276210  416 BILLY SUNDAY RD UNIT 101, AMES Condominium     20500000
    ##  2 0914276215  416 BILLY SUNDAY RD UNIT 102, AMES Condominium     20500000
    ##  3 0914276220  416 BILLY SUNDAY RD UNIT 103, AMES Condominium     20500000
    ##  4 0914276225  416 BILLY SUNDAY RD UNIT 104, AMES Condominium     20500000
    ##  5 0914276230  416 BILLY SUNDAY RD UNIT 105, AMES Condominium     20500000
    ##  6 0914276235  416 BILLY SUNDAY RD UNIT 106, AMES Condominium     20500000
    ##  7 0914276240  416 BILLY SUNDAY RD UNIT 107, AMES Condominium     20500000
    ##  8 0914276245  416 BILLY SUNDAY RD UNIT 108, AMES Condominium     20500000
    ##  9 0914276250  416 BILLY SUNDAY RD UNIT 109, AMES Condominium     20500000
    ## 10 0914276255  416 BILLY SUNDAY RD UNIT 110, AMES Condominium     20500000
    ## # ℹ 178 more rows
…
